@startuml

<>diamond

class Book{
-ID_Book

}

class Example{
- Book
+Avaiable
+Borrowed
+Unavaiable
}

class Member{
+ID_Member

}

class Loan{
-Date

}

class Catalog{
+ID_Catalog
+entry()
+exit()

}

Loan .. diamond
Example "0..*" -- diamond
Catalog "0..*" -- diamond
Example *-- catalog
Member "1" -- diamond
Book <|-- Example

@enduml
